{
    "PREGDEL": 0,
    "CHIEFCOMPLAINT": 0,
    "MEDHIST": 0,
    "DEXAMG": 0,
    "PREN": 0,
    "NOPREN": 0,
    "EPISIOTOMY": 0,
    "PERINEAL": 0,
    "BTL": 0,
    "ANES": 0,
    "BBADM": 0,
    "HPN1": 0,
    "HPN2": 0,
    "VEN1": 0,
    "VEN2": 0,
    "REN1": 0,
    "REN2": 0,
    "INF1": 0,
    "INF2": 0,
    "END1": 0,
    "END2": 0,
    "END3": 0,
    "LIV1": 0,
    "LIV2": 0,
    "NEU1": 0,
    "NEU2": 0,
    "HEMA1": 0,
    "HEMA2": 0,
    "CAR1": 0,
    "CAR2": 0,
    "CAR3": 0,
    "PUL1": 0,
    "PUL2": 0,
    "PUL3": 0,
    "SUR1": 0,
    "SUR2": 0,
    "GYN1": 0,
    "GYN2": 0,
    "MAL1": 0,
    "MAL2": 0,
    "RHE1": 0,
    "RHE2": 0,
    "MUS1": 0,
    "MUS2": 0,
    "POH1": 0,
    "POH2": 0,
    "POH3": 0,
    "POH4": 0,
    "MPR1": 0,
    "MPR2": 0,
    "OB1": 0,
    "OB2": 0,
    "OB3": 0,
    "OB4": 0,
    "OBS1": 0,
    "OBS2": 0,
    "OBS3": 0,
    "OBS4": 0,
    "DYS1": 0,
    "DYS2": 0,
    "DYS3": 0,
    "PREVSCAR1": 0,
    "PREVSCAR2": 0,
    "HRG1": 0,
    "HRG2": 0,
    "FET1": 0,
    "FET2": 0,
    "FET3": 0,
    "AMF1": 0,
    "AMF2": 0,
    "MEM1": 0,
    "MEM2": 0,
    "DURDEL1": 0,
    "DURDEL2": 0,
    "PUER1": 0,
    "PUER2": 0,
    "PPHRG1": 0,
    "PPHRG2": 0,
    "GES": 0,
    "RES1": 0,
    "RES2": 0,
    "CVS1": 0,
    "CVS2": 0,
    "CNS1": 0,
    "CNS2": 0,
    "HEME1": 0,
    "HEME2": 0,
    "MET1": 0,
    "MET2": 0,
    "INFN1": 0,
    "INFN2" : 0,
    "TRAUMA1": 0,
    "TRAUMA2": 0,
    "BLOODLOSS": 0,
    "ANEMIA": 0,
    "VBAC": 0,
    "DISMOTH": 1,
    "FCONG": 1,
    "BBSEX": 3,
    "AFL": 6
}